government = monarchy
add_government_reform = autocracy_reform
government_rank = 2
primary_culture = far_akani
religion = mother_akan
technology_group = tech_salahadesi
national_focus = DIP
capital = 402

1438.7.3 = {
	monarch = {
		name = "Moduman II"
		dynasty = "Akanras"
		birth_date = 1405.11.11
		adm = 2
		dip = 2
		mil = 3
	}
}