# A province can only belong to one region!

# random_new_world_region is used for RNW. Must be first in this list.
random_new_world_region = {
}

########################################
# AELANTIR		                       #
########################################

# North Aelantir 

tor_nayyi_region = {
	areas = {
		broken_islands_area
		torn_isles_area
		west_vanburia_area
		north_vanburia_area
		east_vanburia_area
		
		guardian_islands_area
		crooked_watch_area
	}
}

epednan_expanse_region = {
	areas = {
		areate29_area
		areate30_area
		areate31_area
		areate32_area
		areate35_area
		areate36_area
		
		areate46_area
		areate60_area
		areate61_area
		areate66_area
	}
}

haraf_region = {
	areas = {
		areate1_area
		areate2_area
		areate3_area
		areate4_area
		areate5_area
		areate6_area
		areate7_area
		areate8_area
		areate9_area
		areate10_area
		areate11_area
		areate12_area
		areate13_area
		areate16_area
		areate17_area
		areate18_area
		zurzumexia_area
		areate20_area
		areate21_area
		mestiikardu_area
		areate23_area
		areate24_area
		areate25_area
		gommiochand_area
		areate27_area
		areate28_area
	}
}

mushroom_forest_region = {
	areas = {
		areatb79_area
		areatb87_area
		areatb88_area
	}
}

amadia_region = {
	areas = {
		areatb56_area
		areatb57_area
		areatb58_area
		areatb59_area
		areatb60_area
		areatb61_area
		areatb62_area
		areatb63_area
		areatb64_area
		areatb65_area
		areatb66_area
		areatb67_area
		areatb68_area
		areatb69_area
		areatb70_area
		areatb71_area
		areatb72_area
		areatb73_area
		areatb74_area
		areatb75_area
		areatb76_area
		areatb78_area
	}
}

larankarha_highlands_region = {
	areas = {
		areatb89_area
		areatb90_area
		areatb91_area
		areatb96_area
		areatb97_area
		areatb98_area
		areatb99_area
		areatc3_area
	}
}

taychend_region = {
	areas = {
		areatc1_area
		areatc2_area
		areatc4_area
		areatc5_area
		areatc6_area
		areatc7_area
		areatc8_area
		areatc10_area
		areatc11_area
		areatc12_area
		areatc13_area
		areatc14_area
		areatc15_area
		areatc16_area
		areatc17_area
		areatc18_area
		areatc19_area
		areatc20_area
		areatc21_area
		areatc22_area
		areatc23_area
		areatc29_area
		areatc30_area
		areatd29_area
	}
}

chendhya_region = {	#the middle lands
	areas = {
		areatc24_area
		areatc25_area
		areatc26_area
		areatc27_area
		areatc28_area
		areatc31_area
		areatc32_area
		areatc33_area
		areatb92_area
		areatb93_area
		areatb94_area
		areatb95_area
		areatc58_area
		areatc63_area
		areatc64_area
	}
}

severed_coast_region = {
	areas = {
		areatc89_area
		areatd30_area
		areatd31_area
		areatd32_area
		areatd33_area
		areatd34_area
	}
}

mteibas_valley_region = {
	areas = {
		larivol_area
		vexydhan_area
		cheldivaire_area
		triamet_area
		mteidhan_area
		mteibhara_area
		erixalin_area
		kheinmetei_area
		metelvoreb_area
		vorlidir_area
	}
}

west_effelai_region = {
	areas = {
		silver_banks_area
		hungry_jungle_area
		the_twins_area
		silent_expanse_area
	}
}

andic_reach_region = {
	areas = {
		ameion_area
		askhexel_area
		takothein_area
		deyeion_area
		sotophadi_area
		eiongremos_area
		serigthan_area
		volithoram_area
		amgremos_area
		eltibas_area
		
	}
}

devand_region = {	#the boys cleaved each other
	areas = {
		kherxel_area
		koineion_area
		apikhoxi_area
		besolaki_area
		akrexyl_area
		eneion_area
		trilidir_area
		keyolion_area
		empkeios_area
		elokos_area
		vothelisi_area
		# areatc69_area # Also in Dry Coast
		
		anisikheion_area
		soreion_area
	}
}

alecand_region = {
	areas = {
		geneltik_area
		paranego_area
		lokegentia_area
		lokemeion_area
		ormam_area
		kherka_area
		eltikan_area
		degakheion_area
		kimanis_area
		thorelam_area
		oktikheion_area
		thelkos_area
		mtelian_area
		arpedifer_area
		arpenisi_area
		
		anisidhan_area
	}
}


east_effelai_region = {
	areas = {
		areatc74_area
		areatc75_area
		areatc76_area
		areatc77_area
		areatc78_area
		areatc79_area
		areatc80_area
		areatc81_area
		areatc82_area
		areatc83_area
		areatc90_area
		areatd21_area
		areatd22_area
		areatd23_area
		areatd28_area
	}
}

south_effelai_region = {
	areas = {
		mistwood_area
		deep_trail_area
		central_effelai_area
		rockfall_jungle_area
		junglemouth_area
	}
	monsoon = {
		00.01.01
		00.05.30
	}
}

dry_coast_region = {
	areas = {
		areatc69_area # Also in devand
		areatc70_area
		areatc71_area
		areatc72_area
		areatc73_area
		areatd24_area
		areatd25_area
		areatd26_area
		areatd27_area
	}
}

leechdens_region = {
	areas = {
		serpenthome_area
		spider_coast_area
		screaming_jungle_area
		middans_area
		edgewoods_area
		ungoths_trail_area
		soaring_forest_area
		red_isle_area
		croakwood_area
		leechdens_maw_area
	}
	monsoon = {
		00.12.01
		00.12.30
	}
	monsoon = {
		00.01.01
		00.04.30
	}
}

turtleback_isle_region = {
	areas = {
		areatd35_area
		areatd36_area
		areatd37_area
		areatd38_area
	}
}

north_aelantir_region = {
	areas = {
		silsenald_isles_area
		fiorgram_island_area
	}
}

endralliande_region = {
	areas = {
		foirint_isles_area
		northern_bluff_area
		dancing_sisters_area
		hibiscus_vale_area
		cape_of_endral_area
		lastsight_islands_area
		north_obaithail_area
		south_obaithail_area
		seaway_corridor_area
		red_harbor_area
		endralvar_area
	}
}

ravenous_isle_region = {
	areas = {
		jungles_welcome_area
		sanctuary_fields_area
		trapwall_jungle_area
		despondence_coast_area
		silvertennar_area
	}
}

ruined_isles_region = {
	areas = {
		mykx_isles_area
		breccia_peaks_area
		verten_area
		the_bend_area
		isles_of_plenty_area
		wet_trickster_isle_area
		dry_trickster_isle_area
		unstill_waters_area	#these four should be changed when we do the south bit of that place
		isles_of_transition_area
		saamirses_area
		great_tussock_area
		wanderers_gate_area
		pirendral_area
		torrisheah_area
	}
}

soruin_region = {
	areas = {
		plenty_far_area
		galindas_point_area
		overgrown_area
		lovers_coast_area
		obscured_area
		greenfort_area
		respite_coast_area
		screefall_area
		serpentspray_area
		green_river_area
		trisfersland_area
	}
}

trollsbay_region = {
	areas = {
		valorpoint_area
		laneksfield_area
		coast_of_isobel_area
		boek_river_area
		zanlib_area
		ynnsmouth_area
		marlliande_area
		vincenton_area
		cestirmark_area
		tahaneksom_area
		backwoods_area
		umuhit_area
		new_varlosen_area
		trollhair_woods_area
		bushbanks_area
		bentwaters_area
		yanekin_area
		trollsmaw_swamp_area
		ikla_area
		spoorland_area
		greywood_area
		okhiboli_area
		 thilvis_area
	}
}

reapers_coast_region = {
	areas = {
		dihen_jungle_area
		the_graveroads_area
		cheshosh_area
		finaltoll_area
		maskport_area
		darkgroves_area
		deathweights_area
	}
}

dalaire_region = {
	areas = {
		stalwart_outpost_area
		teirawood_border_area
		areatda1_area
		areatda2_area
		areatda3_area
		areatda4_area
		areatda5_area
		areatda6_area
		areatda7_area
		areatda8_area
		areatda9_area
		areatda10_area
		areatda11_area
		areate94_area
		areate92_area
		areate98_area
		areate99_area
	}
}

sarda_region = {
	areas = {
		areate33_area
		areate34_area
		areate37_area
		areate38_area
		areate39_area
		areate40_area
		areate41_area
		areate42_area
		areate43_area
		areate47_area
		areate48_area
		areate49_area
		areate103_area
	}
}

dolindha_region = {
	areas = {
		areate52_area
		ebenmas_area
		areate54_area
		areate56_area
		areate57_area
		
		areate62_area
		areate64_area
		areate80_area
		areate81_area
		areate85_area
		
		areate104_area
		
		grebniesth_area
	}
}

rzenta_region = {
	areas = {
		areate65_area
		areate68_area
		areate69_area
		areate70_area
		areate71_area
		areate72_area
		areate75_area
		areate83_area
		areate74_area
		areate76_area
		areate79_area
	}
}

veykoda_region = {
	areas = {
		areate44_area
		areate45_area
		corinsfield_area
		balgabar_area
		areate55_area
		
		areate100_area
		areate101_area
		areate102_area

	}
}

forest_of_the_cursed_ones_region = {
	areas = {
		areate58_area
		areate59_area
		areate63_area
		areate82_area
		areate86_area
		areate88_area
		areate89_area
		areate93_area
		areate84a_area
	}
}

bloodgroves_region = {
	areas = {
		south_dalairey_coast_area
		lunsunvars_area
		middle_sella_area
		bloodbrook_area
		firrfrem_area
		aggolinn_area
		nurthannkost_area
		south_dalairey
		fadakwinn_area
		abhennard_area
	}
}

randrunnse_region = {
	areas = {
		tamharcroc_area
		fogharbac_area
		fardach_area
		dartir_area
		medhan_area
		trimgarb_area
		galbhan_area
		anholtir_area
		armonadh_area
		jhorgashirr_area
		gemradcurt_area
	}
}

glorelthir_region = {
	areas = {
		darhan_area
		monkast_area
		trasand_area
		drisleak_area
		iadth_area
		ruigfar_area
		sglolad_area
		raithlos_area
	}
}

sarmadfar_region = {
	areas = {
		serakriok_area
		areaeor5_area
		areaeor6_area
		areaeor17_area
		murdkather_area
		sidmargbal_area
		dearktir_area
		paskala_area
		gathgob_area
		pelodard_area
		eorwestislands_area
	}
}

broken_isles_region = {
	areas = {
		areaeor2_area
		areate78_area
		themaria_area
		areate90_area
		areate91_area
		areate95_area
		areate96_area
	}
}
########################################
# GERUDIA		                       #
########################################

gerudian_coast_region = {
	areas = {
		southern_giants_tears_area
		northern_giants_tears_area
		esfjall_area
		naugsvol_area
		nyrford_area
		olavslund_area
		elkaesals_slumber_area
		giants_manse_area
		gullmork_area
		gifrbygd_area
	}
}

dalr_region = {
	areas = {
		frostbridges_area
		bjarnland_area
		alptborg_area
		revrland_area
		fegras_area
		ismark_area
		sidaett_area
		dalrfjall_area
		thurrsbol_area
		leifsborg_area
		kaldrland_area
	}
}

########################################
# WESTERN CANNOR                       #
########################################

isles_of_lament_region = {
	areas = {
		far_isle_area
	}
}

lencenor_region = {
	areas = {
		venail_area
		upper_bloodwine_area
		lower_bloodwine_area
		sorncost_vines_area
		sornhills_area
		shrouded_coast_area
		ionnidar_area
		redglades_area
		ruby_mountains_area
		deranne_area
		northern_flats_area
		southern_flats_area
		darom_area
		eastern_winebay_area
		upper_winebay_area
		lower_winebay_area
		southroy_area
	}
}

small_country_region = {
	areas = {
		viswall_area
		roysfort_area
		the_borders_area
		thomsbridge_area
		applefields_area
		lorenans_reach_area
		lorentish_approach_area
		pearpoint_area
		norley_area
	}
}

dragon_coast_region = {
	areas = {
		gnomish_pass_area
		nimscodd_area
		dragonpoint_area
		dragondowns_area
		dragonspine_area
		dragonheights_area
		dragondepth_area
		storm_isles_area
		iochand_area
		reaver_coast_area
		dragonhills_area
		lonely_isle_area
	}
}

west_dameshead_region = {
	areas = {
		wesdam_area
		neckcliffe_area
		damespearl_area
		pearlywine_area
		carneteria_area
		windtower_area
		tretunica_area
		exwes_area
		woodwell_area
	}
}

east_dameshead_region = {
	areas = {
		west_damesear_area
		east_damesear_area
		eastneck_area
		damerian_dales_area
		silverwoods_area
		menibor_loop_area
		middle_luna_area
		the_commons_area
		upper_luna_area
		verne_area
		wyvernmark_area
		galeinn_area
		heartlands_area
	}
}

the_borders_region = {
	areas = {
		wexhills_area
		east_bisan_area
		west_bisan_area
		ottocam_area
		greater_bardswood_area
		eastborders_area
		gnollsgate_area
		gisden_area
		arannen_area
		rhinmond_area
		hawkfields_area
		antir_drop_area
		highcliff_area
	}
}

forlorn_vale_region = {
	areas = {
		north_ibevar_area
		south_ibevar_area
		silent_repose_area
		teagansfield_area
		cursewood_area
		rotwall_area
		whistlevale_area
	}
}

esmaria_region = {
	areas = {
		konwell_area
		ryalanar_area
		high_esmar_area
		low_esmar_area
		hearthswood_area
		bennonhill_area
		cann_esmar_area
		songbarges_area
		ashfields_area
	}
}

businor_region = {
	areas = {
		lorbet_area
		mountainway_area
		busilar_area
		busilari_straits_area
		hapiande_area
		khenak_area
		isle_of_tef_area
	}
}

alenic_frontier_region = {
	areas = {
		westmoor_proper_area
		moorhills_area
		beronmoor_area
		westmounts_area
		alenic_expanse_area
		gawed_area
		south_alen_area
		alenvord_area
		balvord_area
		jonsway_area
		arbaran_area
		golden_plains_area
		cestir_area
		coddorran_heights_area
	}
}

alenic_reach_region = {
	areas = {
		mawriver_area
		serpentshead_area
		northern_greatwoods_area
		dinesck_area
		drowned_giant_isles_area
		west_chillsbay_area
		east_chillsbay_area
		wudhal_area
		sondaar_area
		vrorenwall_area
		cedesck_area
		gulletpeak_area
		vrorenmarch_area
	}
}

damescrown_region = {
	areas = {
		damescrown_area
		floodmarches_area
		vertesk_area
		dames_forehead_area
		beepeck_area
		derwing_area
		heartland_borders_area
		ardail_island_area
	}
}

dostanor_region = {
	areas = {
		corvurian_plains_area
		baldostan_area
		central_corvuria_area
		blackwoods_area
	}
}

daravans_folly_region = {
	areas = {
		dreadmire_area
		flooded_coast_area
	}
}

inner_castanor_region = {
	areas = {
		castonath_area
		upper_nath_area
		lower_nath_area
		westgate_area
		southgate_area
		trialmount_area
		steelhyl_area
		nortmere_area
		area71_area
		serpentsmarck_area
		area73_area
		ardent_glade_area
		area75_area
		area76_area
		area77_area
		area78_area
		area80_area
		coalwoud_area
	}
}

south_castanor_region = {
	areas = {
		burnoll_area
		dostans_way_area
		marrhold_area
		oudmerewood_area
		area54_area
		devaced_area
		vernham_area
		oudeben_area
		beastgrave_area
		clovenwood_area
		banesfork_area
		blademarch_area
		swapstoke_area
		hornwood_area
		doewood_area
		themin_area
		humacvord_area
		dryadsdale_area
		area82_area
		area83_area
	}
}

west_castanor_region = {
	areas = {
		balmire_area
		westwall_approach_area
		middle_alen_area
		athfork_area
		ebonmarck_area
		alenwood_area
		falsemire_area
		silvervord_area
		adenica_area
		upcreek_area
		rohibon_area
		valefort_area
		taran_plains_area
		verteben_area
		merescker_area
		nortmerewood_area
	}
}

#########################################
# Sarhal						  		#
#########################################

akan_region = {
	areas = {
		deshak_area
		ekha_area
		middle_akan_area
		hapak_area
		akan_mountains_area
		akarat_area
		akan_isles_area
		salahad_islands_area
		coastal_krahway_area
		western_krahway_area
	}
}

north_salahad_region = {
	areas = {
		oris_area
		ohitsopot_area
		rasu_area
		coast_of_tears_area
		mothers_delta_area
		hitputtiushesh_area
		lower_sorrow_area
		kheterat_proper_area
		upper_sorrow_area
		awaashesh_area
		ibtat_axast_area
		elizna_area
		masusopot_area
	}
}

gol_region = {
	areas = {
		golkora_stretch_area
		gnollakaz_area
		gnolltauz_area
		eastern_krahway_area
		zeewix_area
		saymas_area
		krahilyn_area
		areash181_area
		areash182_area
		areash183_area
		areash184_area
	}
}

south_salahad_region = {
	areas = {
		areash1_area
		areash2_area
		areash3_area
		areash4_area
		areash5_area
		areash6_area
		areash7_area
		areash8_area
		areash9_area
		areash10_area
		areash177_area
	}
}

suddahan_region = {
	areas = {
		areash11_area
		areash12_area
		areash13_area
		areash14_area
		areash15_area
		areash16_area
		areash17_area
		areash18_area
		areash19_area
	}
}

not_ivory_coast_region = {
	areas = {
		areash20_area
		areash21_area
		areash22_area
		areash23_area
		areash24_area
		areash25_area
		areash26_area
		areash27_area
		areash28_area
	}
}

zambeza_region = {
	areas = {
		areash29_area
		areash30_area
		areash31_area
		areash32_area
		areash33_area
		areash34_area
		areash35_area
		areash36_area
		areash37_area
		areash38_area
		areash39_area
		areash40_area
		areash41_area
		areash42_area
		areash43_area
		areash44_area
		areash45_area
		areash46_area
	}
}

nirakhet_range_region = {
	areas = {
		areash47_area
		areash48_area
		areash49_area
		areash50_area
		areash51_area
		areash52_area
		areash53_area
		areash54_area
		areash55_area
		areash56_area
		areash57_area
		areash58_area
	}
}

small_islands_region = {
	areas = {
		areash59_area
		areash60_area
		areash61_area
		areash62_area
		areash63_area
		areash64_area
		areash65_area
		areash185_area
		areash186_area
	}
}

karassk_region = {
	areas = {
		areash66_area
		areash67_area
		areash68_area
		areash69_area
		areash70_area
		areash71_area
		areash72_area
		areash73_area
		areash74_area
		areash75_area
	}
}

serat_region = {
	areas = {
		areash76_area
		areash77_area
		areash78_area
		areash79_area
		areash80_area
		areash81_area
		areash82_area
		areash83_area
		areash84_area
		areash85_area
		areash86_area
		areash87_area
		areash88_area
		areash89_area
		areash90_area
		areash91_area
	}
}

odu_kherass_region = {
	areas = {
		areash92_area
		areash93_area
		areash94_area
		areash95_area
		areash96_area
		areash97_area
		areash98_area
		areash99_area
		areash100_area
		areash101_area
		areash102_area
		areash103_area
		areash104_area
		areash105_area
		areash106_area
		areash107_area
		areash127_area
	}
}

kedwa_region = {
	areas = {
		areash108_area
		areash109_area
		areash110_area
		areash111_area
		areash112_area
		areash113_area
		areash114_area
		areash115_area
		areash116_area
		areash117_area
		areash118_area
	}
}

not_australia_region = {
	areas = {
		areash119_area
		areash120_area
		areash121_area
		areash122_area
		areash123_area
		areash124_area
		areash125_area
		areash126_area
	}
}

coffee_coast_region = {
	areas = {
		areash128_area
		areash129_area
		areash130_area
		areash131_area
		areash132_area
		areash133_area
		areash134_area
		areash135_area
		areash136_area
		areash137_area
		areash138_area
		areash139_area
		areash140_area
	}
}

bakar_region = {
	areas = {
		areash141_area
		areash142_area
		areash143_area
		areash144_area
		areash145_area
		areash146_area
		areash147_area
		areash148_area
		areash149_area
		areash150_area
		areash151_area
		areash152_area
		areash153_area
		areash162_area
		areash163_area
		areash164_area
		areash165_area
	}
}

horncost_region = {
	areas = {
		areash154_area
		areash155_area
		areash156_area
		areash157_area
		areash158_area
		areash159_area
		areash160_area
		areash161_area
	}
}

barkazan_region = {
	areas = {
		areash166_area
		areash167_area
		areash168_area
		areash169_area
		areash170_area
		areash171_area
		areash172_area
		areash173_area
		areash174_area
		areash175_area
		areash176_area
	}
}

########################################
# Bulwar				  		#
########################################

ourdia_region = {
	areas = {
		west_overmarch_area
		east_overmarch_area
		south_overmarch_area
	}
}

bahar_region = {
	areas = {
		crathanor_area
		reuyel_area
		medbahar_area
		magairous_area
		tungr_mountains_area
		aqatbahar_area
		azka_evran_area
		bahar_szel_uak_area
		birsartenslib_area
	}
}

bulwar_proper_region = {
	areas = {
		inner_drolas_area
		outer_drolas_area
		lower_brasan_area
		upper_brasan_area
		outer_brasan_area
		anzabad_area
		irrliam_area
		salahad_gate_area
		sur_mountains_area
		garpix_ukraz_area
		garpix_tluukt_area
		grixekyr_area
		zansap_area
		middle_suran_area
		anzarzax_area
		kumarkand_area
		bulwar_area
		varamhar_area
		yrkur_area
		harklum_area
		south_naza_area
		west_naza_area
		north_naza_area
		east_naza_area	
	}
}

harpy_hills_region = {
	areas = {
		imuluses_area
		ur_monkande_area
		kuz_mountains_area
		alyzksaan_area
		upper_gelkali_area
		gelkalis_area
		jorkad_lake_area
		harpylen_area
		crelyore_ridge_area
		invaders_pass_area
		kalisad_area
		nephevis_tears_area
	}
}

far_bulwar_region = {
	areas = {
		avamezan_area	
		eduz_vacyn_area
		panuses_area	
		upper_suran_area	
		azka_sur_area	
		grixek_area	
		ardu_area	
		garpix_zokka_area	
		jikarzax_area	
		sareyand_area
	}
}

far_salahad_region = {
	areas = {
		harpys_gate_area
		siadans_nest_area
		far_east_salahad_area
		davharral_area
		gold_road_area
		mulen_pass_area
		arrtukerr_area
		keruhar_area
		saranza_area
		salahimil_area
	}
}

###########################################
#Forbidden Lands
###########################################

yyl_moista_region = {
	areas = {
		yyl_moitsa_west_area
		far_moitsa_area
		yyl_moitsa_east_area
		central_moitsa_area
		eternal_winter_area
		skurkha_kyard_area
		moitsa_siiv_area
		moitsahdi_area
		moitsaresta_area
		moitsraj_area
	}
}

ogre_mountains_region = {
	areas = {
		ovto_kigval_area
		kvakeinolba_area
		ghavatmorzgh_area
		krotavatsvi_area
		dzimokli_area
	}
}

west_forbidden_plains_region = {
	areas = {
		taryezamh_area
		markhezamh_area
		ugheabar_area
		caubheameas_area
		codormalul_area
		naglaibar_area
		foirakhian_area
		cahuteaghud_area
		alrodgaersp_area
		salrun_goilust_area
		taegansegh_area
		sochuleag_area
		adoi_filaenan_area
	}
}

east_forbidden_plains_region = {
	areas = {
		inaer_taizamh_area
		danorbar_area
		godhosegh_area
		ghaneersp_area
		aporlaen_area
		itorlan_area
		shaenerlin_area
		osal_ageeneas_area
		irdu_ageeneas_area
		godairzumh_area
		domn_filaenan_area
		orchekh_area
	}
}

serpent_gift_region = {
	areas = {
		nac_magthaal_area
		eamschemb_area
		egoirnasgh_area
		itorelgea_area
	}
}

southern_isles_region = {
	areas = {
		bocenvokin_area
		prikoyol_area
		yukaron_area
		peenadhi_area
		yuurarila_area
		kuskemua_area
		gadhlumo_area
		doynuya_area
		yukaroyol_area
	}
}

northern_isles_region = {
	areas = {
		doykilraj_area
		tomoryon_area
		qushyil_area
		tolgalsui_area
		kesh_golkhin_area
		sarts_neisar_area
		kozuurin_gur_area
		zoi_khorkhiin_area
		keshkoi_area
		shikenkhiin_area
		onrek_area
		shik_dozein_area
		shik_dazar_area
	}
}

nuzurbokh_region = {
	areas = {
		jaratish_area
		pasktisk_area
		zarmiklon_area
		priktisk_area
		akan_dzor_area
		dzordaan_area
		akandhil_area
		enkayiin_area
		tarbokh_area
		bulrekayig_area
		kalgazuur_area
		zoital_area
		baizoi_area
		zurkalga_area
		zoitalzar_area
		zoikhill_area
		zuurzoi_area
		tozgonrek_area
		zurenkhiin_area
	}
}

#Sea Regions
north_aelantir_coast_region = {
	areas = {
		north_aelantir_coast_area
	}
}

south_aelantir_coast_region = {
	areas = {
		south_aelantir_coast_area
		leechdens_area
	}
}

north_uelos_lament_ocean_region = {
	areas = {
		edillions_relief_area
		far_sea_area
		the_great_expanse_area
		banished_sea_area
		coast_of_endrallian_area
	}
}

south_uelos_lament_ocean_region = {
	areas = {
		south_uelos_lament_sea_area
		far_uelos_lament_sea_area
	}
}

south_sarhal_coast_region = {
	areas = {
		splintered_archipelago_area
		kedwali_coast_area
	}
}

west_salahad_coast_region = {
	areas = {
		west_salahad_sea_area
	}
}

cleaved_sea_coast_region = {
	areas = {
		kaydhano_coast_area
		cleaved_sea_area
	}
}

north_ocean_of_the_lost_region = {
	areas = {
		north_ocean_of_the_lost_area
		bay_of_insyaa_area
		barrier_islands_area
	}
}

south_ocean_of_the_lost_region = {
	areas = {
		south_ocean_of_the_lost_area
	}
}

punctured_coast_region = {
	areas = {
		punctured_coast_area
	}
}

west_aelantir_coast_region = {
	areas = {
		west_aelantir_coast_area
	}
}

torn_sea_region = {
	areas = {
		torn_sea_area
	}
}

outer_torn_sea_region = {
	areas = {
		outer_torn_sea_area
	}
}


northern_pass_sea_region = {
	areas = {
		northern_pass_area
		inner_sea_area
		outer_sea_area
	}
}

ringlet_sea_region = {
	areas = {
		ringlet_sea_area
		the_bridge_area
	}
}

gulf_of_rahen_region = {
	areas = {
		gulf_of_rahen_area
	}
}

northeast_haless_coast_region = {
	areas = {
		northeast_haless_coast_area
	}
}

kedwali_gulf_region = {
	areas = {
		kedwali_gulf_area 
	}
}

dameshead_sea_region = {
	areas = {
		damesneck_sea_area
		dameshead_sea_area
	}
}

giants_grave_sea_region = {
	areas = {
		giants_grave_sea_area
		bay_of_chills_area
	}
}

divenhal_sea_region = {
	areas = {
		bay_of_wines_sea_area
		west_diven_area
		coast_of_akan_area
		east_diven_area
		sea_of_follies_area
		sea_of_stone_area
		gulf_of_glass_area
		brasanni_sea_area
	}
}

westcoast_region = {
	areas = {
		southcoast_area
		westcoast_area
		bay_of_dragons_area
	}
}

northern_thaw_region = {
	areas = {
		reaversea_area
		far_thaw_area
		lonely_sea_area
	}
}

broken_sea_region = {
	areas = {
		broken_sea_approach_area
		broken_sea_area
	}
}

western_broken_sea_region = {
	areas = {
		western_broken_sea_area
	}
}

ruined_sea_region = {
	areas = {
		trollsbay_coast_area
		ruined_sea_area
		east_ruin_sea_area
		western_respite_sea_area
		reapers_coast_area
	}
}

calamity_pass_region = {
	areas = {
		calamity_pass_area
	}
}


########################################
# SERPENTSPINE                         #
########################################


serpents_vale_region = {
	areas = {
		royal_terrace_area
		common_terrace_area
		assembly_terrace_area
		castle_hill_area
	}
}

northern_pass_region = {
	areas = {
		the_copperwood_area
		upper_logr_area
		tanning_valley_area
		middle_logr_area
		hidden_respite_area
		lonely_mountains_area
		lower_logr_area
		dwaroval_area
	}
}

west_dwarovar_region = {
	areas = {
		amldihr_area
		anvils_horn_area
		krakdhum_area
		dead_end_tunnel_area
		khugdihr_area
		dwarovrod_1_3_area
		snotslair_area
		orldhum_area
		east_breach_area
		north_breach_area
		dwarovrod_4_6_area
		west_breach_area
		south_breach_area
		riftway_area
		dwarovrod_7_9_area
		mithradhum_area
		dwarovrod_10_12_area
		backmarr_area
		zokkorna_caverns_area
		railyard_exchange_area
		railyard_area
		skulkers_lair_area
		goblins_bypass_area
		dagrinrod_4_6_area
		broken_dagger_pass_area
		dagrinrod_7_9_area
		orlazam_area
		old_dagrinrod_area
		dagrinrod_13_15_area
		vazhatun_area
		stunad_kozenad_area
		travelers_refuge_area
		westnest_area
		eastnest_area
		dwarovrod_15_17_area
		azmak_area
		jorkad_junction_area
		dwarovrod_21_24_area
	}
}

middle_dwarovar_region = {
	areas = {
		vazumbrog_area
		dwarovrod_27_29_area
		misty_cave_trail_area
		hehos_legacy_area
		dwarovrod_30_32_area
		deep_ones_lair_area
		diggers_road_area
		dwarovrod_33_35_area
		seghdihr_area
		steamsource_area
		stunad_kradoz_area
		goblin_grotto_area
		greatcavern_area
		verkal_gulan_area
		xazor_area
		dwarovrod_38_41_area
		ulagom_area
		ozumbrog_area
	}
}

serpentreach_region = {
	areas = {
		gor_burad_area
		buradforge_area
		argrod_14_16_area
		zarn_area
		zaba_zoom_area
		argrod_junction_area
		shroomfissure_area
		argrod_9_11_area
		argrod_6_8_area
		ovdal_lodhum_area
		thievesbane_area
		shazstundihr_area
		stunad_skomdihr_area
		kings_caverns_area
		arg_ordstun_area
		argrod_origin_area
		north_altar_area
		south_altar_area
		orlghelovar_area
	}
}

tree_of_stone_region = {
	areas = {
		dwarovrod_45_48_area
		kanzad_area
		dwarovrod_51_53_area
		grozumdihr_area
		ovdal_az_an_area
		dwarovrod_57_59_area
		hul_az_krakazol_area
		dwarovrod_63_65_area
		anduz_area
		ambermine_alley_area
		earthseed_area
		the_kariats_area
		hovezan_pass_area
		ibran_pass_area
		sulimak_area
		drunken_pass_area
	}
}

jade_mines_region = {
	areas = {
		dwarovrod_66_68_area
		tuwad_area
		dwarovrod_71_74_area
		gronstunad_area
		dwarovrod_75_78_area
		dwarovrod_79_81_area
		dromak_area
		tuwad_pass_area
		jadeforges_area
		the_back_tunnels_area
		jazka_area
		dromak_pass_area
		the_flank_area
		blastcrack_area
		goblinwarrens_area
	}
}


###########################################
#Deepwood
###########################################

west_deepwood = {
	areas = {
		sawelear_area
		sawallar_area
		clirypriah_area
		prehnryn_area
		drennen_area
		dennesayrn_area
		cenag_area
		ciranhofonn_area
	}
}

east_deepwood = {
	areas = {
		ayeth_area
		lonfarch_area
		coryllann_area
		fealmyraeth_area
		scothalar_area
		scothaear_area
		criodharka_area
		yfelorr_area
		arsydpydru_area
		ghul_area
	}
}


########################################
# RAHEN			                       #
########################################


rahen_coast_region = {
	areas = {
		avhavubhiya_area
		sarkhashabid_area
		ascension_cape_area
		shenral_area
		harimars_cradle_area
		bharagha_area
		tujgal_area
		dhenbasana_estuary_area
		kharunyana_estuary_area
		lower_dhenbasana_area
		rhamirta_area
		inner_rahen_area
		satarsaya_area
	}
	monsoon = {
		00.07.01
		00.08.30
	}
}

rakhadesh_region = {
	areas = {
		upper_dhenbasana_area
		pasiragha_area
		south_marutha_area
		south_ghankedhen_area
		north_ghankedhen_area
		babhagama_area
		ghattub_area
	}
	monsoon = {
		00.07.01
		00.08.30
	}
}

shamakhad_region = {
	areas = {
		west_rajnadhaga_area
		khadirnadi_area
		east_rajnadhaga_area
		tiltaghar_area
		middle_nadimraj_area
		bidhilar_area
		khadisrapur_area
		munlanan_area
		kradhungur_area
		tamvihar_area
		khamarutar_area
		ghatasak_area
		khasardul_area
		marudhoj_area
		nadida_area
		arearah35_area
		ghilapur_area
		sir_area
		nakara_area
		tilathi_area
		raghajandi_area
	}
	monsoon = {
		00.07.01
		00.08.30
	}
}

dhujat_region = {
	areas = {
		east_marutha_area
		kramitra_area
		tavharaan_area
		maharaaja_area
		khiraspid_area
		tughayasa_area
		pordhatti_area
		buhaanjirgal_area
		maldeelakhan_area
		banjisbid_area
		banjiraal_area
		khirnadhiman_area
		keyattordha_area
	}
	monsoon = {
		00.07.01
		00.08.30
	}
}


########################################
# Haless			                   #
########################################


bomdan_region = {
	areas = {
		reanthung_area
		li_btei_area
		lower_telebei_area
		areanc4_area
		areanc5_area
		areanc6_area
		areanc7_area
		areanc8_area
		areanc9_area
		areanc10_area
		bim_lau_area
		middle_telebei_area
		khung_btei_area
		phangban_area
		semphrerong_area
		areanc30_area
		areanc36_area
		areanc37_area
		areanc35_area
	}
	monsoon = {
		00.07.01
		00.08.30
	}
}

lupulan_rainforest_region = {
	areas = {
		areanc41_area
		areanc42_area
		areanc43_area
		areanc44_area
		areanc45_area
		areanc46_area
		areanc47_area
		areanc48_area
		areanc49_area
		areanc50_area
		areanc51_area
		areanc52_area
		areanc53_area
		areanc54_area
		areanc55_area
	}
	monsoon = {
		00.05.01
		00.08.30
	}
}

lower_yanshen_region = {
	areas = {
		areanc79_area
		areanc80_area
		areanc87_area
		areanc88_area
		areanc89_area
		areanc90_area
		areanc91_area
		areanc92_area
		areanc93_area
		areanc94_area
		areanc95_area
		areanc96_area
		areanc97_area
		areanc98_area
		areanc99_area
		areanc100_area
		areanc100b_area
		areanc101_area
		areanc102_area
		areanc103_area
	}
	monsoon = {
		00.05.01
		00.06.30
	}
}

upper_yanshen_region = {
	areas = {
		areanc73_area
		areanc74_area
		areanc75_area
		areanc76_area
		areanc77_area
		areanc78_area
		areanc81_area
		areanc82_area
		areanc83_area
		areanc84_area
		areanc85_area
		areanc86_area
	}
	monsoon = {
		00.05.01
		00.06.30
	}
}

demon_hills_region = {
	areas = {
		areanc68_area
		areanc69_area
		areanc70_area
		areanc71_area
		areanc72_area
	}
	monsoon = {
		00.05.01
		00.06.30
	}
}

xianjie_region = {
	areas = {
		areanc16_area
		areanc17_area
		sarisung_area
		areanc19_area
		areanc20_area
		areanc21_area
		areanc22_area
		areanc23_area
		areanc24_area
		areanc25_area
		areanc26_area
		areanc27_area
		areanc28_area
		areanc29_area
		areanc31_area
	}
	monsoon = {
		00.05.01
		00.06.30
	}
}

thidinkai_region = {
	areas = {
		areanc38_area
		areanc39_area
		areanc40_area
		areanc56_area
		areanc57_area
		areanc58_area
		areanc59_area
		areanc60_area
		areanc61_area
		areanc62_area
		phaktai_area
		ananhu_area
		areanc65_area
		thirabnir_area
		hinphat_area

		phakphon_area
		ngoen_area
		kaiden_area
	}
	monsoon = {
		00.05.01
		00.06.30
	}
}

ringlet_isles_region = {
	areas = {
		areanc123_area
		areanc124_area
		areanc125_area
		areanc126_area
	}
	monsoon = {
		00.05.01
		00.06.30
	}
}

debug_region = {
	areas = {
		debug_area
	}
}





# Deprecated Stuff to prevent [triggerimplementation.cpp:15371]: Unknown region used in a trigger horn_of_africa_region crashes

########################################
# EUROPE                               #
########################################

france_region = {
	areas = {

	}
}

scandinavia_region = {
	areas = {

	}
}


low_countries_region = {
	areas = {

	}

}

italy_region = {
	areas = {

	}
}


north_german_region = {
	areas = { 

	}
}




south_german_region = {
	areas = { 

	}
}

russia_region = {
	areas = {

	}
}


ural_region = {
	areas = {

	}
}

iberia_region = {
	areas = {

	}
}



british_isles_region = {
	areas = {

	}
}

baltic_region = {
	areas = {

	}
}

poland_region = {
	areas = {
		
	}
}

ruthenia_region = {
	areas = {

	}
}

crimea_region = {
	areas = {

	}
}

balkan_region = {
	areas = {

	}
}

carpathia_region = {
	areas = {

	}
}

egypt_region = {
	areas = {

	}
}

maghreb_region = {
	areas = {

	}
}

mashriq_region = {
	areas = {

	}
}

anatolia_region = {
	areas = {

	}
}

persia_region = {
	areas = {

	}
}

khorasan_region = {
	areas = {

	}
}


caucasia_region = {
	areas = {

	}
}

arabia_region = {
	areas = {

	}
}

niger_region = {
	areas = {

	}
}

guinea_region = {
	areas = {

	}
}


sahel_region = {
	areas = {

	}
}

horn_of_africa_region = {
	areas = {

	}
}

east_africa_region = {
	areas = {

	}
}

central_africa_region = {
	areas = {

	}
}

kongo_region = {
	areas = {

	}
}

central_asia_region = {
	areas = {

	}
}

south_africa_region = {
	areas = {

	}
}

west_siberia_region = {
	areas = {

	}
}

east_siberia_region = {
	areas = {

	}
}

mongolia_region = {
	areas = {

	}
}

manchuria_region = {
	areas = {

	}
}

korea_region = {
	areas = {

	}
}

tibet_region = {
	areas = {

	}
}

hindusthan_region = {
	areas = {

	}
}

bengal_region = {
	areas = {

	}
}

west_india_region = {
	areas = {
		
	}
}

deccan_region = {
	areas = {

	}
}

coromandel_region = {
	areas = {

	}
}


burma_region = {
	areas = {

	}
}

japan_region = {
	areas = {

	}
}

australia_region = {
	areas = {

	}
}


south_china_region = {
	areas = {

	}
}

xinan_region = {
	areas = {

	}
}

north_china_region = {
	
	areas = {

	}
}

brazil_region = {
	
	areas = {

	}
}

la_plata_region = {
	areas = {

	}
}


colombia_region = {
	areas = {
	
	}
}

peru_region = {
	areas = {

	}
}

upper_peru_region = {
	areas = {

	}
}

malaya_region = {	#Western Indonesia Malaya.
	areas = {

	}
}


moluccas_region = {
	areas = {

	}
}



indonesia_region = { #Eastern Indonesian/Malayan Islands.
	areas = {

	}
}


oceanea_region = {
	areas = {

	}
}

indo_china_region = {
	areas = {

	}
}

canada_region = {
	areas = {

	}
}

great_lakes_region = {
	areas = {

	}
}

northeast_america_region = {
	areas = {

	}
}

southeast_america_region =  {
	areas = {

	}
}

mississippi_region = {
	areas = {

	}
}

rio_grande_region = {
	areas = {
	
	}
}

great_plains_region = {
	areas = {

	}
}

california_region = {
	areas = {

	}
}

cascadia_region = {
	areas = {

	}
}

hudson_bay_region = {
	areas = {

	}
}

mexico_region = {
	areas = {

	}
}

central_america_region = {
	areas = {

	}
}

carribeans_region = {
	areas = {

	}
}

#Sea Regions
baltic_sea_region = {
	areas = {

	}
}

north_atlantic_region = {
	areas = {

	}
}

american_east_coast_region = {
	areas = {

	}
}

mediterrenean_region = {
	areas = {

	}
}

caribbean_sea_region = {
	areas = {

	}
}


west_african_sea_region = {
	areas = {

	}
}

west_indian_ocean_region = {
	areas = {

	}
}

arabian_sea_region = {
	areas = {

	}
}

east_indian_ocean_region = {
	areas = {

	}
}

south_indian_ocean_region = {
	areas = {

	}
}

south_china_sea_region = {
	areas = {

	}
}

east_china_sea_region = {
	areas = {

	}
}

north_west_pacific_region = {
	areas = {

	}
}

south_west_pacific_region = {
	areas = {

	}
}

south_east_pacific_region = {
	areas = {

	}
}

north_east_pacific_region = {
	areas = {

	}
}

pacific_south_america_region = {
	areas = {

	}
}

atlantic_south_america_region = {
	areas = {

	}
}

south_atlantic_region = {
	areas = {

	}
}
