#377 - Aleppo

owner = A49
controller = A49
add_core = A49
culture = hill_gnoll
religion = xhazobkult

hre = no

base_tax = 2
base_production = 2
base_manpower = 2

trade_goods = copper

capital = ""

is_city = yes











