#467 - Borisoglebsk

owner = F01
controller = F01
add_core = F01
add_core = F04
culture = kheteratan
religion = khetist

hre = no

base_tax = 5
base_production = 3
base_manpower = 3

trade_goods = grain

capital = ""

is_city = yes










