#543 - Deshkumar

owner = F21
controller = F21
add_core = F21
culture = bahari
religion = bulwari_sun_cult

base_tax = 4
base_production = 5
base_manpower = 4

trade_goods = glass

capital = ""

is_city = yes











add_permanent_province_modifier = {
	name = elven_minority_coexisting_large
	duration = -1
}